Refine Finna Metadata — refine_metadata • finna
…
    Value

    A tibble with selected, cleaned metadata fields, or NULL if required fields are missing.

    Examples

library(finna)
sibelius_data <- search_finna("sibelius")
#> Warning: Default limit of 100 records is being used. Specify 'limit' argument for more records.
#> Total results found: 44515
#> Data fetching completed in 0.33 seconds.
refine_metadata(sibelius_data)
#> # A tibble: 100 × 8
#>    Title                   Author Year  Language Formats Subjects Library Series
#>    <chr>                   <chr>  <chr> <chr>    <chr>   <chr>    <chr>   <chr> 
#>  1 Sibelius favourites : … Sibel… 2001  Unknown… Äänite… orkeste… Lapin … Unkno…
#>  2 Sibelius                Lampi… 1995  fin      Kirja,… Sibeliu… Anders… Unkno…
#>  3 Sibelius                Lampi… 1984  fin      Kirja,… Sibeliu… Anders… Unkno…
#>  4 Sibelius                Tawas… 1997  fin      Kirja,… Sibeliu… Rutakk… Unkno…
#>  5 Sibelius                RINGB… 1948  swe      Kirja,… Unknown… Fredri… Unkno…
#>  6 Sibelius                Ringb… 1948  swe      Kirja,… Sibeliu… Lukki-… Unkno…
#>  7 Sibelius                Ringb… 1948  swe      Kirja,… Jean Si… Svensk… Unkno…
#>  8 Sibelius                Barne… 2007  eng      Kirja,… Sibeliu… Helmet… Unkno…
#>  9 Sibelius.               Ottaw… 1968  Unknown… Kirja,… Unknown… Åbo Ak… Unkno…
#> 10 Sibelius                Sibel… 2017  zxx      Äänite… Unknown… Keski-… Unkno…
#> # ℹ 90 more rows
…
