Finna Index Search with Total Limit Option — search_finna • finna
…
prettyPrint
A logical value indicating whether to pretty-print the JSON response. Useful for debugging. Defaults to FALSE.

    Value

    A tibble containing the search results with relevant fields extracted and provenance information.

    Examples

search_results <- search_finna("sibelius", sort = "main_date_str desc", limit = 100)
#> Warning: Default limit of 100 records is being used. Specify 'limit' argument for more records.
#> Total results found: 44515
#> Data fetching completed in 0.87 seconds.
print(search_results)
#> # A tibble: 100 × 10
#>    id                Title Author Year  Language Formats Subjects Library Series
#>    <chr>             <chr> <chr>  <chr> <chr>    <chr>   <chr>    <chr>   <chr> 
#>  1 outi.2378313      Jean… Griml… 2025  eng      Kirja,… NA       OUTI-k… NA    
#>  2 anders.1945667    He s… Kirve… 2024  fin      Kirja,… sotilaa… Anders… NA    
#>  3 anders.1947392    Mies… Tasal… 2024  fin      Kirja,… Heikkin… Anders… NA    
#>  4 helka.9934642735… Yli-… Frost… 2024  fin      Kirja,… Wagner,… Helka-… NA    
#>  5 anders.1958752    Eero… Järne… 2024  fin      Kirja,… Järnefe… Anders… Atene…
#>  6 helle.1634933     Eero… Järne… 2024  swe      Kirja,… Järnefe… Helle-… Atene…
#>  7 helmet.2580197    Eero… Järne… 2024  eng      Kirja,… Järnefe… Helmet… Atene…
#>  8 anders.1963289    Sola… NA     2024  zxx      Äänite… NA       Anders… NA    
#>  9 helmet.2584794    Laul… Klas,… 2024  fin      Äänite… 2020-lu… Helmet… NA    
#> 10 anders.1961626    Nono… Söder… 2024  fin      Kirja,… Söderbe… Anders… NA    
#> # ℹ 90 more rows
#> # ℹ 1 more variable: last_indexed <chr>
…
