Fennica in Finna • finna
…
      Source: vignettes/articles/Fennica.Rmd
      Fennica.Rmd

Fennica

To search Fennica data in Finna

N.B In the search_finna() default limit of 100
records is being used. Specify ‘limit’ argument for more records.

library(finna)
fennica <- search_finna("*",filters=c('collection:"FEN"'))
print(fennica)

## # A tibble: 100 × 9
##    id          Title       Author Year  Language Formats Subjects Library Series
##    <chr>       <chr>       <chr>  <chr> <chr>    <chr>   <chr>    <chr>   <chr> 
##  1 3amk.39381  Teknologia… Markk… 2003  fin      Kirja,… teknolo… 3AMK-k… Edusk…
##  2 3amk.55142  Työsuojelu… Sanas… 2006  fin      Kirja,… Diction… 3AMK-k… TSK   
##  3 3amk.62039  Terveyden … Kiisk… 2008  fin      Kirja,… alkohol… 3AMK-k… Sosia…
##  4 3amk.62695  Nuorten te… Rimpe… 2007  fin      Kirja,… altistu… 3AMK-k… Sosia…
##  5 3amk.66893  Mahdollisu… Holma… 2008  fin      Kirja,… Turun a… 3AMK-k… Turun…
##  6 3amk.68989  Mini-inter… Seppä… 2008  fin      Kirja,… Communi… 3AMK-k… Sosia…
##  7 3amk.69050  Pysytään t… Suomi… 2008  fin      Kirja,… vajaaku… 3AMK-k… Sosia…
##  8 diana.90230 Tulevaisuu… Lampi… 2009  fin      Kirja,… kotital… Diakon… Opetu…
##  9 3amk.70767  Kaupunkilu… Laine… 2009  fin      Kirja,… kaupunk… 3AMK-k… Tutki…
## 10 diana.96117 Suomalaise… Helak… 2011  fin      Kirja,… terveys… Diakon… Rapor…
## # ℹ 90 more rows
…
In order to download the whole data we can add the parameter
limit = Inf as
search_finna("*",filters=c('collection:"FEN"'), limit = Inf)

Checking the total counts

search the whole data and it total search of counts in the the
interval between some years for example between the years 1809-1917 as
follows:

library(finna)
fennica <- search_finna("*",filters = c('collection:"FEN"', 'search_daterange_mv:"[1809 TO 1918]"'))
print(fennica)

## # A tibble: 100 × 9
##    id                Title Author Year  Language Formats Subjects Library Series
##    <chr>             <chr> <chr>  <chr> <chr>    <chr>   <chr>    <chr>   <chr> 
##  1 aalto.9973269344… "Fin… Inha,… 1896  mul      Kirja,… NA       Aalto-… NA    
##  2 aalto.9926263844… "Suo… Tie- … 1911  fin      Kirja,… NA       Aalto-… NA    
##  3 jykdok.750037     "Tie… Schvi… 1893  fin      Kirja,… NA       Jyväsk… Suome…
##  4 jykdok.724878     "För… NA     1892  swe      Kirja,… naisasi… Jyväsk… NA    
##  5 helka.9911841543… "Suo… NA     1890  fin      Kirja,… arkeolo… Helka-… Suome…
##  6 jykdok.1925462    "Bou… Appel… 1891  fin      Kirja,… NA       Jyväsk… NA    
##  7 fikka.3996595     "Til… Ekman… 1869  swe      Kirja,… NA       Kansal… NA    
##  8 helka.9912014063… "Lau… Jutei… 1844  fin      Kirja,… NA       Helka-… NA    
##  9 helka.9920831553… "Hal… NA     1881  fin      Kirja,… NA       Helka-… NA    
## 10 helka.9914651535… "Kes… L. W.… 1898  fin      Kirja,… arkeolo… Helka-… Suome…
## # ℹ 90 more rows
…
1. Search for Author Information:

You can use the type = "Author" option to specifically
search for records by author.

library(finna)
record <-search_finna(query = "Jean Sibelius", type = "Author")
record

## # A tibble: 100 × 9
##    id                Title Author Year  Language Formats Subjects Library Series
##    <chr>             <chr> <chr>  <chr> <chr>    <chr>   <chr>    <chr>   <chr> 
##  1 kainet.265818     Viol… JEAN … 1983  zxx      Äänite… NA       Kainet… NA    
##  2 fikka.5193247     Jean… NA     1984  zxx      Äänite… NA       Kansal… NA    
##  3 jykdok.1840263    Jean… NA     1984  zxx      Äänite… NA       Jyväsk… NA    
##  4 vaarakirjastot.1… Stri… Jean … 1985  NA       Äänite… kvartet… Vaara-… NA    
##  5 eepos.101243      Laul… Sibel… 1986  fin      Nuotti  NA       Eepos-… NA    
##  6 eepos.135507      Humo… Sibel… 1981  zxx      Nuotti  NA       Eepos-… NA    
##  7 anders.144771     WATE… SIBEL… 1997  NA       Nuotti  1870-LU… Anders… NA    
##  8 tiekko.370787     Baga… Sibel… 1985  fin      Nuotti  NA       Joki-k… NA    
##  9 eepos.100775      Stri… Sibel… 1985  zxx      Äänite… NA       Eepos-… NA    
## 10 eepos.133968      Musi… Sibel… 1989  mul      Äänite… NA       Eepos-… NA    
## # ℹ 90 more rows
…
