Overview of Finna Collection • finna
…
Example 3: Fetching LIDO Records

library(finna)
result <- fetch_finna_collection(
  query = "record_format:lido",
  limit = 0,
  facets = "building",
  lng = "fi",
  prettyPrint = TRUE
)
print(result)

## # A tibble: 119 × 4
##    value                          translated                         count href 
##    <chr>                          <chr>                              <int> <chr>
##  1 0/AALTOARKISTO/                Aalto-yliopiston arkisto           64408 ?loo…
##  2 0/ALVARAALTO/                  Alvar Aalto -museo                   329 ?loo…
##  3 0/MFA/                         Arkkitehtuurimuseo                  5798 ?loo…
##  4 0/Asikkalan kulttuuripalvelut/ Asikkalan kulttuuripalvelut         2716 ?loo…
##  5 0/casahaartman/                Casa Haartman                        109 ?loo…
##  6 0/designmuseo/                 Designmuseo                         1534 ?loo…
##  7 0/EMMA/                        EMMA – Espoon modernin taiteen mu…  1879 ?loo…
##  8 0/etthem/                      Ett Hem                              748 ?loo…
##  9 0/FORSSANMUSEO/                Forssan museo                      29530 ?loo…
## 10 0/Forum Marinum/               Forum Marinum                      10251 ?loo…
## # ℹ 109 more rows

Example 4: Fetching MARC Records

library(finna)
result <- fetch_finna_collection(
  query = "record_format:marc",
  limit = 0,
  facets = "building",
  lng = "fi",
  prettyPrint = TRUE
)
print(result)

## # A tibble: 76 × 4
##    value                 translated                             count href      
##    <chr>                 <chr>                                  <int> <chr>     
##  1 0/3AMK/               3AMK-kirjastot                         43887 ?lookfor=…
##  2 0/AALTO/              Aalto-yliopisto                        29612 ?lookfor=…
##  3 0/Anders/             Anders-kirjastot                       33220 ?lookfor=…
##  4 0/ARCADA/             Arcadan kirjasto                        8438 ?lookfor=…
##  5 0/MFA/                Arkkitehtuurimuseo                     18125 ?lookfor=…
##  6 0/Blanka/             Blanka-kirjastot                       17079 ?lookfor=…
##  7 0/CENTRIA/            Centria-kirjasto                         991 ?lookfor=…
##  8 0/deutschebibliothek/ Deutsche Bibliothek                    30847 ?lookfor=…
##  9 0/DIAK/               Diakonia-ammattikorkeakoulun kirjasto   2726 ?lookfor=…
## 10 0/EKK/                Eduskunnan kirjasto                   130543 ?lookfor=…
## # ℹ 66 more rows
…
Example 6: Fetching Qualified Dublin Core(qdc) Records

library(finna)
result <- fetch_finna_collection(
  query = "record_format:qdc",
  limit = 0,
  facets = "building",
  lng = "fi",
  prettyPrint = TRUE
)
print(result)

## # A tibble: 50 × 4
##    value          translated                             count href             
##    <chr>          <chr>                                  <int> <chr>            
##  1 0/AALTO/       Aalto-yliopisto                       124619 ?lookfor=record_…
##  2 0/lasipalatsi/ Albumit auki                            2413 ?lookfor=record_…
##  3 0/ARCADA/      Arcadan kirjasto                        5625 ?lookfor=record_…
##  4 0/CENTRIA/     Centria-kirjasto                        7214 ?lookfor=record_…
##  5 0/DIAK/        Diakonia-ammattikorkeakoulun kirjasto   7056 ?lookfor=record_…
##  6 0/ELY-keskus/  ELY-keskus                              2462 ?lookfor=record_…
##  7 0/ETK/         Eläketurvakeskus                        1947 ?lookfor=record_…
##  8 0/HAAGA-HELIA/ Haaga-Helia ammattikorkeakoulu         17432 ?lookfor=record_…
##  9 0/HAMK/        HAMK                                   11202 ?lookfor=record_…
## 10 0/HUMAK/       Humanistinen ammattikorkeakoulu         4393 ?lookfor=record_…
## # ℹ 40 more rows

Example 7: Fetching All Records

result <- fetch_finna_collection(
  query = "*",
  limit = 0,
  facets = "building",
  lng = "fi",
  prettyPrint = TRUE
)
print(result)

## # A tibble: 222 × 4
##    value                          translated                   count href       
##    <chr>                          <chr>                        <int> <chr>      
##  1 0/3AMK/                        3AMK-kirjastot              127234 ?lookfor=%…
##  2 0/AALTO/                       Aalto-yliopisto             238505 ?lookfor=%…
##  3 0/AALTOARKISTO/                Aalto-yliopiston arkisto     64408 ?lookfor=%…
##  4 0/Aipa/                        Aipa                           122 ?lookfor=%…
##  5 0/lasipalatsi/                 Albumit auki                  2413 ?lookfor=%…
##  6 0/ALVARAALTO/                  Alvar Aalto -museo             329 ?lookfor=%…
##  7 0/Anders/                      Anders-kirjastot            268298 ?lookfor=%…
##  8 0/ARCADA/                      Arcadan kirjasto             25344 ?lookfor=%…
##  9 0/MFA/                         Arkkitehtuurimuseo           36013 ?lookfor=%…
## 10 0/Asikkalan kulttuuripalvelut/ Asikkalan kulttuuripalvelut   2716 ?lookfor=%…
## # ℹ 212 more rows
…
