Refine, integrate and analyse Finna metadata • finna
…
Introduction

This vignette provides an overview of how to use the finna
package.

Refine using refine_metadata()
function

library(finna)
sibelius_data <- search_finna("sibelius")
refined_data <- refine_metadata(sibelius_data)
print(refined_data)

## # A tibble: 100 × 8
##    Title                   Author Year  Language Formats Subjects Library Series
##    <chr>                   <chr>  <chr> <chr>    <chr>   <chr>    <chr>   <chr> 
##  1 Sibelius favourites : … Sibel… 2001  Unknown… Äänite… orkeste… Lapin … Unkno…
##  2 Sibelius                Tappe… 1967  Unknown… Taidet… Unknown… Jyväsk… Unkno…
##  3 Sibelius                Favén… Unkn… Unknown… Taidet… kaljuus… Lahden… Unkno…
##  4 Sibelius                Tawas… 2003  fin      Kirja,… Sibeliu… Anders… Unkno…
##  5 Sibelius                Ringb… 1948  fin      Kirja,… Sibeliu… Eepos-… Unkno…
##  6 SIBELIUS                TÖRNE… 1945  fin      Kirja,… SIBELIU… Helle-… Unkno…
##  7 Sibelius                Lampi… 1995  fin      Kirja,… Sibeliu… Kansal… Unkno…
##  8 Sibelius                Lampi… 2005  fin      Kirja,… Sibeliu… Kansal… Unkno…
##  9 Sibelius                Lampi… 1984  fin      Kirja,… Sibeliu… Kansal… Unkno…
## 10 Sibelius                Tawas… 1997  fin      Kirja,… Sibeliu… Kansal… Unkno…
## # ℹ 90 more rows

integrate using integrate_metadata()
Function

finna_data <- search_finna("sibelius")
other_data <- tibble::tibble(
  Title = c("Sibelius Symphony No. 5", "Finlandia", "Valse Triste"),
  Rating = c(5, 4, 3)
)
integrated_data <- integrate_metadata(finna_data, other_data, key = "Title")
print(integrated_data)

## # A tibble: 103 × 9
##    Title            Author Year  Language Formats Subjects Library Series Rating
##    <chr>            <chr>  <chr> <chr>    <chr>   <chr>    <chr>   <chr>   <dbl>
##  1 Sibelius favour… Sibel… 2001  NA       Äänite… orkeste… Lapin … NA         NA
##  2 Sibelius         Tappe… 1967  NA       Taidet… NA       Jyväsk… NA         NA
##  3 Sibelius         Favén… NA    NA       Taidet… kaljuus… Lahden… NA         NA
##  4 Sibelius         Tawas… 2003  fin      Kirja,… Sibeliu… Anders… NA         NA
##  5 Sibelius         Ringb… 1948  fin      Kirja,… Sibeliu… Eepos-… NA         NA
##  6 SIBELIUS         TÖRNE… 1945  fin      Kirja,… SIBELIU… Helle-… NA         NA
##  7 Sibelius         Lampi… 1995  fin      Kirja,… Sibeliu… Kansal… NA         NA
##  8 Sibelius         Lampi… 2005  fin      Kirja,… Sibeliu… Kansal… NA         NA
##  9 Sibelius         Lampi… 1984  fin      Kirja,… Sibeliu… Kansal… NA         NA
## 10 Sibelius         Tawas… 1997  fin      Kirja,… Sibeliu… Kansal… NA         NA
## # ℹ 93 more rows
…
##    Formats                            n
##    <chr>                          <int>
##  1 Kirja, Kirja                      66
##  2 Lehti/Artikkeli, Artikkeli        15
##  3 Äänite, CD                         7
##  4 Video, DVD                         4
##  5 Video, Elokuva, lyhyt              2
##  6 Äänite, Äänilevy                   2
##  7 Arkisto/Kokoelma, Arkistosarja     1
##  8 Taideteos, Taideteos               1
##  9 Taideteos, Veistos                 1
## 10 Äänite, Musiikkitallenne           1
## 
## $year_distribution
## # A tibble: 38 × 2
##    Year      n
##    <chr> <int>
##  1 1948     10
##  2 1945      9
##  3 1997      8
##  4 1968      6
##  5 1999      6
##  6 2003      6
##  7 1984      4
##  8 1998      4
##  9 2015      4
## 10 1931      3
## # ℹ 28 more rows
## 
## $author_distribution
## # A tibble: 56 × 2
##    Author                                          n
##    <chr>                                       <int>
##  1 Häyrynen, Antti                                10
##  2 Layton, Robert                                  7
##  3 Sibelius, Jean                                  6
##  4 Ringbom, Nils-Eric                              5
##  5 Downes, Olin, Sjöblom, Paul, Jalas, Jussi       4
##  6 Gray, Cecil                                     4
##  7 Lampila, Hannu-Ilari                            4
##  8 Tawaststjerna, Erik                             4
##  9 Tawaststjerna, Erik, Tawaststjerna, Erik T.     4
## 10 Haapaniemi, Jaakko                              2
## # ℹ 46 more rows
…
