Introduction to finna • finna
…
Introduction

This vignette provides an overview of how to use the finna
package.

To make a simple search use the following code. I we need a bulk
download we use search_finna("sibelius", limit = Inf)

library(finna)
record <- search_finna("sibelius")
print(record)

## # A tibble: 100 × 8
##    Title                   Author Year  Language Formats Subjects Library Series
##    <chr>                   <chr>  <chr> <chr>    <chr>   <chr>    <chr>   <chr> 
##  1 Sibelius favourites : … Sibel… 2001  NA       Äänite… orkeste… Lapin … NA    
##  2 Sibelius                Tappe… 1967  NA       Taidet… NA       Jyväsk… NA    
##  3 Sibelius                Favén… NA    NA       Taidet… kaljuus… Lahden… NA    
##  4 Sibelius                Tawas… 2003  fin      Kirja,… Sibeliu… Anders… NA    
##  5 Sibelius                Ringb… 1948  fin      Kirja,… Sibeliu… Eepos-… NA    
##  6 SIBELIUS                TÖRNE… 1945  fin      Kirja,… SIBELIU… Helle-… NA    
##  7 Sibelius                Lampi… 1995  fin      Kirja,… Sibeliu… Kansal… NA    
##  8 Sibelius                Lampi… 2005  fin      Kirja,… Sibeliu… Kansal… NA    
##  9 Sibelius                Lampi… 1984  fin      Kirja,… Sibeliu… Kansal… NA    
## 10 Sibelius                Tawas… 1997  fin      Kirja,… Sibeliu… Kansal… NA    
## # ℹ 90 more rows

Free text search

library(finna)
result <- search_finna("Jansson Tove")
print(result)

## # A tibble: 100 × 8
##    Title                   Author Year  Language Formats Subjects Library Series
##    <chr>                   <chr>  <chr> <chr>    <chr>   <chr>    <chr>   <chr> 
##  1 Lehtileikkeet : Jansso… NA     NA    fin      Muu/Mä… Jansson… PIKI-k… NA    
##  2 Tove Jansson            NA     1994  eng      Lehti/… Jansson… Kansal… NA    
##  3 Tove Jansson            Ørjas… 1985  nor      Kirja,… Jansson… Helka-… Gylde…
##  4 Tove Jansson            NA     1953  NA       Kuva, … seinäma… Museov… NA    
##  5 Tove Jansson            NA     1962  NA       Kuva, … HBL; di… Museov… NA    
##  6 Tove Jansson            Brand… 1953  NA       Kuva, … kirjail… Museov… NA    
##  7 Tove Jansson : [Vem oc… Tampe… 1994  fin      Kirja,… Jansson… Helka-… Tampe…
##  8 Tove Jansson            Karja… 2020  fin      Kirja,… NA       Kansal… NA    
##  9 Tove Jansson            NA     1969  NA       Kuva, … kirjail… Museov… NA    
## 10 Tove Jansson            Jones… 1984  eng      Kirja,… Jansson… Helka-… Twayn…
## # ℹ 90 more rows

Search phrase examples

library(finna)
phrase <- search_finna("bicycle")
print(phrase)

## # A tibble: 100 × 8
##    Title                 Author   Year  Language Formats Subjects Library Series
##    <chr>                 <chr>    <chr> <chr>    <chr>   <chr>    <chr>   <chr> 
##  1 Bicycle rider         Sciosci… 1983  eng      Kirja,… NA       Varast… NA    
##  2 Bicycle boogie        Gaddy, … 1987  eng      Äänite… NA       Eepos-… NA    
##  3 Bicycle USA           League … 1984  eng      Opinnä… Cycling… Jyväsk… NA    
##  4 Bicycle thieves       Sica, V… 1981  eng      Kirja,… Italia.… Turun … NA    
##  5 Bicycle revolution    Kalima,… 2009  zxx      Äänite… 2000-20… Helmet… NA    
##  6 Bicycle revolution    NA       2009  zxx      Äänite… NA       PIKI-k… NA    
##  7 Christopher's bicycle Middlet… 2013  eng      Kirja,… Nibble,… Helmet… NA    
##  8 Bicycle diaries       Byrne, … 2010  eng      Kirja,… Byrne, … Lastu-… NA    
##  9 Bicycle safety        NA       1900  eng      Kirja,… NA       Varast… NA    
## 10 Bicycle revolution    NA       2009  NA       Äänite… NA       Kansal… NA    
## # ℹ 90 more rows
…
AND

Use the AND operator to yield search results which feature every term
in the search field. If you write several words into the search field
and separate them with a space, the space will function as the AND
operator.

Example 1

library(finna)
Combination <- search_finna("nutrition AND (diet OR lifestyle)")
print(Combination)

## # A tibble: 100 × 8
##    Title                   Author Year  Language Formats Subjects Library Series
##    <chr>                   <chr>  <chr> <chr>    <chr>   <chr>    <chr>   <chr> 
##  1 Lifestyle nutrition     Dwyer… 2001  eng      Kirja,… Health … Helka-… Lifes…
##  2 Diet and nutrition      Evans… 1984  eng      Kirja,… NA       Varast… NA    
##  3 Nutrition and lifestyl… Maail… 1999  eng      Kirja,… Nutriti… Helka-… NA    
##  4 Diet, nutrition, and c… Assem… 1982  eng      Kirja,… Cancer,… Jyväsk… NA    
##  5 Nutrition and diet the… Willi… 1985  eng      Kirja,… NA       Varast… NA    
##  6 Foods, diet, and nutri… Jones… 1970  eng      Kirja,… NA       Varast… NA    
##  7 Nutrition and diet the… Willi… 1977  eng      Kirja,… ravitse… Varast… NA    
##  8 Nutrition and diet the… Lutz,… 2015  eng      Kirja,… Diet Th… 3AMK-k… NA    
##  9 Nutrition, Diet and Ca… Shank… 2012  eng      Kirja,… Medicin… Jyväsk… NA    
## 10 Nutrition and diet the… Willi… 1973  eng      Kirja,… NA       Varast… NA    
## # ℹ 90 more rows

Example 2 For example, these two searches will yield the same
results:

library(finna)
no_Combination <- search_finna("Karisto Seppälä")
print(no_Combination)

## # A tibble: 100 × 8
##    Title                   Author Year  Language Formats Subjects Library Series
##    <chr>                   <chr>  <chr> <chr>    <chr>   <chr>    <chr>   <chr> 
##  1 Junan viemä : muusikko… Karis… 2015  fin      Lehti/… muusiko… Kansal… Missä…
##  2 Maukas gradu : valmist… Karis… 2004  fin      Kirja,… tutkiel… Humani… NA    
##  3 Tee se! : sosiaalipoli… Karis… 2000  fin      Kirja,… kirjoit… Helka-… Työra…
##  4 [Kirja-arvostelu]       Karis… 2000  fin      Lehti/… Lehtola… Kansal… NA    
##  5 Maukas gradu / valmist… Karis… 2004  fin      Kirja,… arvoste… Vaasan… NA    
##  6 Lahden, Kariston ja va… Hiila… 2016  fin      Kirja,… Karisto… Itä-Su… NA    
##  7 Maukas gradu : valmist… Karis… 2004  fin      Kirja,… researc… 3AMK-k… NA    
##  8 Topin talvipuuhia       Seppä… 2010  fin      Kirja,… Siru,, … Anders… Koira…
##  9 Topi karkuteillä        Seppä… 2011  fin      Kirja,… Topi,, … Anders… Koira…
## 10 Topi löytöretkillä      Seppä… 2009  fin      Kirja,… Siru,, … Anders… Koira…
## # ℹ 90 more rows

library(finna)
Combination_AND <- search_finna("Karisto AND Seppälä")
print(Combination_AND)

## # A tibble: 100 × 8
##    Title                   Author Year  Language Formats Subjects Library Series
##    <chr>                   <chr>  <chr> <chr>    <chr>   <chr>    <chr>   <chr> 
##  1 Junan viemä : muusikko… Karis… 2015  fin      Lehti/… muusiko… Kansal… Missä…
##  2 Maukas gradu : valmist… Karis… 2004  fin      Kirja,… tutkiel… Humani… NA    
##  3 Tee se! : sosiaalipoli… Karis… 2000  fin      Kirja,… kirjoit… Helka-… Työra…
##  4 [Kirja-arvostelu]       Karis… 2000  fin      Lehti/… Lehtola… Kansal… NA    
##  5 Maukas gradu / valmist… Karis… 2004  fin      Kirja,… arvoste… Vaasan… NA    
##  6 Lahden, Kariston ja va… Hiila… 2016  fin      Kirja,… Karisto… Itä-Su… NA    
##  7 Maukas gradu : valmist… Karis… 2004  fin      Kirja,… researc… 3AMK-k… NA    
##  8 Topin talvipuuhia       Seppä… 2010  fin      Kirja,… Siru,, … Anders… Koira…
##  9 Topi karkuteillä        Seppä… 2011  fin      Kirja,… Topi,, … Anders… Koira…
## 10 Topi löytöretkillä      Seppä… 2009  fin      Kirja,… Siru,, … Anders… Koira…
## # ℹ 90 more rows

OR

The OR operator expands your search results. The results will show
material that feature at least one of the search terms you indicated.
For example, if you are looking for information on the Eastern Orthodox
Church:

library(finna)
Combination_OR <- search_finna("Eastern Orthodoxy” OR “Orthodox Church")
print(Combination_OR)

## # A tibble: 48 × 8
##    Title                   Author Year  Language Formats Subjects Library Series
##    <chr>                   <chr>  <chr> <chr>    <chr>   <chr>    <chr>   <chr> 
##  1 "Eastern Orthodox Chri… Geffe… 2016  eng      Kirja,… Orthodo… Itä-Su… NA    
##  2 "The mystical as polit… Papan… 2012  eng      Kirja,… Christi… Jyväsk… NA    
##  3 "Orthodox construction… Demac… 2013  eng      Kirja,… Orthodo… Savoni… Ortho…
##  4 "Encounter between Eas… Pabst… 2009  eng      Kirja,… Philoso… Jyväsk… NA    
##  5 "The church's unholy w… Denys… 2023  eng      Kirja,… Orthodo… Itä-Su… NA    
##  6 "Fundamentalism or Tra… Apple… 2019  eng      Kirja,… Orthodo… Savoni… Ortho…
##  7 "\"For I am wonderfull… Chern… 2017  eng      Kirja,… Orthodo… Helka-… NA    
##  8 "Orthodox construction… Demac… 2013  eng      Kirja,… ortodok… Helka-… Ortho…
##  9 "Proselytism and Ortho… Witte… 2009  eng      Kirja,… Russkai︠… Itä-Su… NA    
## 10 "Orthodoxy and psychoa… Cazac… 2013  eng      Kirja,… Thermos… Itä-Su… Europ…
## # ℹ 38 more rows

Using the OR operator will return results that feature one or more of
your search terms.This example search will find results relating to
farms or farming:

library(finna)
phrase <- search_finna("farm OR farming")
print(phrase)

## # A tibble: 100 × 8
##    Title                   Author Year  Language Formats Subjects Library Series
##    <chr>                   <chr>  <chr> <chr>    <chr>   <chr>    <chr>   <chr> 
##  1 Farm families and fami… Ollil… 1999  eng      Kirja,… investo… Helka-… Worki…
##  2 Farm crops              Boatf… 1983  eng      Kirja,… NA       Varast… Farmi…
##  3 Farm machinery          Bell,… 1985  eng      Kirja,… maatalo… Helka-… Farmi…
##  4 Farm workshop           Bell,… 1981  eng      Kirja,… worksho… Helka-… Farmi…
##  5 Corporate farming and … Great… 1970  eng      Kirja,… Farm co… Varast… NA    
##  6 Farm machinery          Bell,… 1996  eng      Kirja,… NA       Varast… NA    
##  7 Farm machinery          Bell,… 1989  eng      Kirja,… koneet.… Helka-… NA    
##  8 Farm business manageme… Nutha… 2011  eng      Kirja,… maatila… Seinäj… NA    
##  9 Farm computer news      NA     1981  eng      Lehti/… NA       Varast… NA    
## 10 Dairy farm business ma… Slate… 1983  eng      Kirja,… Dairy f… Helka-… NA    
## # ℹ 90 more rows

NOT

library(finna)
Combination_OR <- search_finna("surrealism NOT (painting OR “visual arts”)")
print(Combination_OR)

## # A tibble: 100 × 8
##    Title      Author              Year  Language Formats Subjects Library Series
##    <chr>      <chr>               <chr> <chr>    <chr>   <chr>    <chr>   <chr> 
##  1 Surrealism Klingsöhr-Leroy, C… 2009  eng      Kirja,… surreal… Helmet… NA    
##  2 Surrealism Brodskai͡a, N. V.    2018  eng      Kirja,… Surreal… Jyväsk… Art o…
##  3 Surrealism Lusty, Natalya      2021  eng      Kirja,… surreal… Kansal… Cambr…
##  4 Surrealism Duplessis, Yves, Y… 1978  eng      Kirja,… surreal… Kansal… NA    
##  5 Surrealism Pierre, José        1979  eng      Kirja,… NA       Varast… NA    
##  6 Surrealism Waldberg, Patrick   1978  eng      Kirja,… surreal… Helmet… NA    
##  7 Surrealism edited by Mary Ann… 2004  eng      Kirja,… surreal… Kansal… NA    
##  8 Surrealism Caws, Mary Ann      2004  eng      Kirja,… kuvatai… Aalto-… Theme…
##  9 Surrealism Schneede, Uwe M.    1973  eng      Kirja,… NA       Jyväsk… The l…
## 10 Surrealism Chénieux-Gendron, … 1990  eng      Kirja,… NA       Helka-… Europ…
## # ℹ 90 more rows

Search operators + and !-

In addition to the most common Boolean operators (AND, OR, NOT),
Finna uses the + and !- operators.

+

library(finna)
search_oper <- search_finna("+economics Keynes”)")
print(search_oper)

## # A tibble: 100 × 8
##    Title                   Author Year  Language Formats Subjects Library Series
##    <chr>                   <chr>  <chr> <chr>    <chr>   <chr>    <chr>   <chr> 
##  1 Keynes' economics : me… Lawso… 1985  eng      Kirja,… NA       Itä-Su… NA    
##  2 Keynes' economics : me… Lawso… 1989  eng      Kirja,… NA       Åbo Ak… NA    
##  3 The new economics : Ke… Harri… 1947  eng      Kirja,… Keynes.… Svensk… NA    
##  4 The new economics : Ke… Harri… 1950  eng      Kirja,… Keynes,… Tamper… NA    
##  5 The New Economics : Ke… Harri… 1949  eng      Kirja,… keynesi… Edusku… NA    
##  6 The new economics : Ke… Harri… 1952  eng      Kirja,… Keynes,… Helka-… NA    
##  7 The new economics : Ke… Harri… 1949  eng      Kirja,… NA       Varast… NA    
##  8 The new economics : Ke… Harri… 1950  eng      Kirja,… NA       Varast… NA    
##  9 The new economics : Ke… Harri… 1948  eng      Kirja,… Keynes,… Kansal… NA    
## 10 The new economics : Ke… Harri… 1968  eng      Kirja,… NA       Turun … NA    
## # ℹ 90 more rows

!-

library(finna)
search_oper <- search_finna("economics !-Keynes”)")
print(search_oper)

## # A tibble: 100 × 8
##    Title     Author               Year  Language Formats Subjects Library Series
##    <chr>     <chr>                <chr> <chr>    <chr>   <chr>    <chr>   <chr> 
##  1 Economics Sloman, John, Wride… 2012  eng      Kirja,… Economi… 3AMK-k… NA    
##  2 Economics Parkin, Michael, Po… 2008  eng      Kirja,… kansant… Sataku… NA    
##  3 Economics Krugman, Paul R., W… 2008  eng      Kirja,… Economi… 3AMK-k… NA    
##  4 Economics Begg, David, FISCHE… 1991  eng      Kirja,… NA       Joki-k… NA    
##  5 Economics Samuelson, Paul A.,… 1992  eng      Kirja,… taloust… OUTI-k… NA    
##  6 Economics Lipsey, Richard G.,… 2007  eng      Kirja,… kansant… Aalto-… NA    
##  7 Economics Mankiw, N. Gregory,… 2010  eng      Kirja,… 2007-20… 3AMK-k… NA    
##  8 Economics Hubbard, R. Glenn, … 2008  eng      Kirja,… Economi… HAMK, … NA    
##  9 Economics Fischer, Stanley, D… 1983  eng      Kirja,… NA       Varast… NA    
## 10 Economics Parkin, Michael      2010  eng      Kirja,… NA       Aalto-… NA    
## # ℹ 90 more rows

NB! The !- operator cannot be used in single-word searches.

For example, the following search will yield no results:

library(finna)
search_oper <- search_finna("!-economics”)")
print(search_oper)

## # A tibble: 100 × 8
##    Title                   Author Year  Language Formats Subjects Library Series
##    <chr>                   <chr>  <chr> <chr>    <chr>   <chr>    <chr>   <chr> 
##  1 Päihdetilastollinen vu… NA     2013  fin      Kirja,… alkohol… 3AMK-k… Suome…
##  2 Sosiaali- ja terveysal… NA     2019  fin      Kirja,… tilasto… 3AMK-k… Suome…
##  3 Päihdetilastollinen vu… NA     2018  fin      Kirja,… alkohol… 3AMK-k… Suome…
##  4 Kyberturvallisuuden sa… Olin,… 2018  fin      Kirja,… kybertu… 3AMK-k… Sanas…
##  5 Teknologian arviointej… Markk… 2003  fin      Kirja,… teknolo… 3AMK-k… Edusk…
##  6 Työsuojelusanasto = Ar… Sanas… 2006  fin      Kirja,… Diction… 3AMK-k… TSK   
##  7 Hyvä tieteellinen käyt… Tutki… 2002  fin      Kirja,… tutkimu… 3AMK-k… NA    
##  8 Nuorten terveystapatut… Rimpe… 2007  fin      Kirja,… altistu… 3AMK-k… Sosia…
##  9 Mahdollisuuksien ikkun… Holma… 2008  fin      Kirja,… Turun a… 3AMK-k… Turun…
## 10 Mini-intervention jalk… Seppä… 2008  fin      Kirja,… Communi… 3AMK-k… Sosia…
## # ℹ 90 more rows
…
The asterisk may also be used in the middle of a search term to
replace one or more characters. For example, to search for both the
terms color and colour, use the search term:

Example 2

library(finna)
search_Asterisk <- search_finna("colo*r”)")
print(search_Asterisk)

## # A tibble: 100 × 8
##    Title                   Author Year  Language Formats Subjects Library Series
##    <chr>                   <chr>  <chr> <chr>    <chr>   <chr>    <chr>   <chr> 
##  1 MCS '07 : ninth Intern… Lee, … 2007  eng      Kirja,… Image p… "Itä-S… NA    
##  2 Exploring Realpolitik … Cusac… 1990  eng      Kirja,… kansain… "Edusk… NA    
##  3 Economics and cultures  Wick,… 1996  eng      Kirja,… NA       "Åbo A… NA    
##  4 The complete book of U… Senic… 1988  eng      Kirja,… NA       "Maanp… NA    
##  5 Frontiers for freedom   Hoxie… 1952  eng      Kirja,… NA       "Maanp… NA    
##  6 Soviet air power        Whiti… 1986  eng      Kirja,… NA       "Maanp… NA    
##  7 Change in the internat… Holst… 1980  eng      Kirja,… kansain… "Edusk… NA    
##  8 The German assault rif… Senic… 1987  eng      Kirja,… Assault… "Maanp… NA    
##  9 The Stroessner era : a… Miran… 1990  eng      Kirja,… Stroess… "Itä-S… NA    
## 10 Revolution, armies, an… Adelm… 1985  eng      Kirja,… NA       "Maanp… NA    
## # ℹ 90 more rows
…
Sorting

To search all related in descending order

record <- search_finna("sibelius", sort = "main_date_str des")
print(record)

## # A tibble: 100 × 8
##    Title                   Author Year  Language Formats Subjects Library Series
##    <chr>                   <chr>  <chr> <chr>    <chr>   <chr>    <chr>   <chr> 
##  1 He selvisivät sodasta   Kirve… 2024  fin      Kirja,… sotilaa… Anders… NA    
##  2 Yli-ihmisiä ja traagis… Frost… 2024  fin      Kirja,… Wagner,… Helka-… NA    
##  3 Eero Järnefelt          Järne… 2024  fin      Kirja,… Järnefe… Anders… Atene…
##  4 Eero Järnefelt          Järne… 2024  swe      Kirja,… Järnefe… Helle-… Atene…
##  5 Eero Järnefelt          Järne… 2024  eng      Kirja,… Järnefe… Helmet… Atene…
##  6 Solace                  NA     2024  zxx      Äänite… NA       Anders… NA    
##  7 Laulun juhlaa           Klas,… 2024  fin      Äänite… 2020-lu… Helmet… NA    
##  8 Solace                  Sibel… 2024  zxx      Äänite… NA       Taidey… NA    
##  9 A gardener's world : f… Fishe… 2024  eng      Äänite… NA       Anders… NA    
## 10 Sibelius, Prokofiev 1,… Janse… 2024  zxx      Äänite… NA       Eepos-… NA    
## # ℹ 90 more rows

To search all related in ascending order

record <- search_finna("sibelius", sort = "main_date_str asc")
print(record)

## # A tibble: 100 × 8
##    Title                   Author Year  Language Formats Subjects Library Series
##    <chr>                   <chr>  <chr> <chr>    <chr>   <chr>    <chr>   <chr> 
##  1 Jean Sibelius : mestar… Kurje… 0000  fin      Kirja,… Sibeliu… Kansal… NA    
##  2 Lyyli Swanin kirje Nel… Swan,… 0000  NA       Teksti… NA       Suomal… NA    
##  3 Nelma Sibeliuksen kirj… Päivä… 0000  NA       Teksti… NA       Suomal… NA    
##  4 Nelma Sibeliuksen kirj… Sibel… 0000  NA       Teksti… NA       Suomal… NA    
##  5 Kaino Nelma Swanin mui… NA     0000  NA       Teksti… NA       Suomal… NA    
##  6 BIOGRAFICA              NA     0000  NA       Teksti… NA       Suomal… NA    
##  7 Nuorten- ja lastenkirj… NA     0000  NA       Teksti… NA       Suomal… NA    
##  8 Nuorten Kirja ry:n aiv… NA     0000  NA       Teksti… NA       Suomal… NA    
##  9 Malin-suvun sukupuu     NA     0000  NA       Teksti… NA       Suomal… NA    
## 10 Satujen käsikirjoituks… NA     0000  NA       Teksti… NA       Suomal… NA    
## # ℹ 90 more rows

To search Last modified

record <- search_finna("sibelius", sort = "last_indexed desc")
print(record)

## # A tibble: 100 × 8
##    Title                   Author Year  Language Formats Subjects Library Series
##    <chr>                   <chr>  <chr> <chr>    <chr>   <chr>    <chr>   <chr> 
##  1 Suomalainen joulu : ko… NA     2006  fin      Nuotti  NA       Vanamo… NA    
##  2 Canzonetta : op62a : p… Sibel… 1938  zxx      Nuotti  NA       Vanamo… NA    
##  3 15 ausgewählte Lieder … Sibel… 1966  deu      Nuotti  NA       Vanamo… NA    
##  4 Finlandia : op26 nro 7… Sibel… 1933  zxx      Nuotti  sovituk… Vanamo… NA    
##  5 Supermarsu ja jääräpää… Noron… 2015  fin      Kirja,… Emilia,… Anders… Tamme…
##  6 Ars longa vita brevis … NA     2003  eng      Äänite… NA       Kuopio… NA    
##  7 Soiva L. Onerva. III :… Onerv… 2024  fin      Äänite… NA       Kansal… NA    
##  8 Suuri joululaulukirja   Leske… 2022  fin      Nuotti  NA       Anders… NA    
##  9 Pikku pianistin joulus… Heikk… 2003  fin      Nuotti  ohjelmi… Lapin … NA    
## 10 Works for piano =  : K… Sibel… 2008  zxx      Nuotti  piano, … OUTI-k… Compl…
## # ℹ 90 more rows
…
