Viola in Finna • finna
…
You can also fetch records missing the main_date_str
field:

# Fetch undated records
undated_records <- search_finna(
  query = "*",
  filters = c('collection:"VIO"', '-main_date_str:*'),
  limit = Inf
)

# View undated records
print(undated_records)

## # A tibble: 2,685 × 10
##    id             Title    Author Year  Language Formats Subjects Library Series
##    <chr>          <chr>    <chr>  <chr> <chr>    <chr>   <chr>    <chr>   <chr> 
##  1 fikka.5207343  [Gradua… NA     NA    fin      Nuotti  arkisto… Kansal… NA    
##  2 jykdok.1827911 Sotiemm… NA     NA    fin      Äänite… NA       Jyväsk… NA    
##  3 fikka.4941590  Demo     NA     NA    zxx      Äänite… NA       Kansal… NA    
##  4 fikka.4941603  Boogie … NA     NA    zxx      Äänite… NA       Kansal… NA    
##  5 fikka.4941825  Close-up NA     NA    zxx      Äänite… NA       Kansal… NA    
##  6 fikka.4997308  [Demo]   NA     NA    zxx      Äänite… NA       Kansal… NA    
##  7 fikka.4997735  [Demo]   NA     NA    zxx      Äänite… NA       Kansal… NA    
##  8 fikka.5206900  Oulu Ho… NA     NA    mul      Äänite… amerika… Kansal… NA    
##  9 fikka.4997560  [Demo]   NA     NA    eng      Äänite… NA       Kansal… NA    
## 10 fikka.4994228  [Demo]   NA     NA    zxx      Äänite… NA       Kansal… NA    
## # ℹ 2,675 more rows
## # ℹ 1 more variable: last_indexed <chr>
…
